﻿{
  "Logging": {
    "IncludeScopes": false,
    "LogLevel": {
      "Default": "Warning"
    }
  },
  "Data": {
    "DefaultConnection": {
//      "ConnectionString": "Server=185.48.4.142;Database=onlinico-crew;User Id=datacheck; Password=Instance@22;MultipleActiveResultSets=true"
      "ConnectionString": "Server=(localdb)\\mssqllocaldb;Database=datacheck-proto-v1;Trusted_Connection=True;MultipleActiveResultSets=true"
    }
  },
  "WebServer": {
    "Uri": "http://localhost",
    "Port": "12345"
  }
}
