﻿{
  "Logging": {
    "IncludeScopes": false,
    "LogLevel": {
      "Default": "Warning",
      "System": "Information",
      "Microsoft": "Information"
    }
  },
  "Data": {
    "DefaultConnection": {
            "ConnectionString": "Server=185.48.4.142;Database=crew-production;User Id=datacheck; Password=Instance@22;MultipleActiveResultSets=true"
    }
  },
  "WebServer": {
    "Uri": "https://www.your-crew.com",
    "Port": "80"
  }
}
